{"failedCount":0,"prefixedPath":"classpath:Apis\/Reqres\/GET.feature","packageQualifiedName":"Apis.Reqres.GET","loopIndex":-1,"relativePath":"Apis\/Reqres\/GET.feature","scenarioResults":[{"sectionIndex":0,"stepResults":[{"result":{"nanos":222700,"startTime":1722510785124,"endTime":1722510785124,"millis":0.2227,"status":"passed"},"step":{"line":5,"prefix":"Given","index":0,"text":"url baseURL"},"stepLog":"16:43:05.124 karate.env system property was: null \n"},{"result":{"nanos":572600,"startTime":1722510785125,"endTime":1722510785126,"millis":0.5726,"status":"passed"},"step":{"line":6,"prefix":"And","index":1,"text":"path '\/api\/users?page=2'"}},{"result":{"nanos":342469800,"startTime":1722510785125,"endTime":1722510785467,"millis":342.4698,"status":"passed"},"step":{"line":7,"prefix":"When","index":2,"text":"method GET"},"stepLog":"16:43:05.127 request:\n1 > GET https:\/\/reqres.in\/api\/users%3Fpage=2\n1 > Host: reqres.in\n1 > Connection: Keep-Alive\n1 > User-Agent: Apache-HttpClient\/4.5.14 (Java\/17.0.4.1)\n1 > Accept-Encoding: gzip,deflate\n\n\n16:43:05.464 response time in milliseconds: 335\n1 < 200\n1 < Date: Thu, 01 Aug 2024 11:13:05 GMT\n1 < Content-Type: application\/json; charset=utf-8\n1 < Transfer-Encoding: chunked\n1 < Connection: keep-alive\n1 < Report-To: {\"group\":\"heroku-nel\",\"max_age\":3600,\"endpoints\":[{\"url\":\"https:\/\/nel.heroku.com\/reports?ts=1722410535&sid=c4c9725f-1ab0-44d8-820f-430df2718e11&s=mUTOjpyE8RizYDuxb05Jbgtigky1ks7KNTQ%2B%2FF8Agjs%3D\"}]}\n1 < Reporting-Endpoints: heroku-nel=https:\/\/nel.heroku.com\/reports?ts=1722410535&sid=c4c9725f-1ab0-44d8-820f-430df2718e11&s=mUTOjpyE8RizYDuxb05Jbgtigky1ks7KNTQ%2B%2FF8Agjs%3D\n1 < Nel: {\"report_to\":\"heroku-nel\",\"max_age\":3600,\"success_fraction\":0.005,\"failure_fraction\":0.05,\"response_headers\":[\"Via\"]}\n1 < X-Powered-By: Express\n1 < Access-Control-Allow-Origin: *\n1 < Etag: W\/\"2c1-N6Rqerxquq2kgQhL51EiSg4x0R8\"\n1 < Via: 1.1 vegur\n1 < Cache-Control: max-age=14400\n1 < CF-Cache-Status: REVALIDATED\n1 < Vary: Accept-Encoding\n1 < Server: cloudflare\n1 < CF-RAY: 8ac565973e0d421e-BOM\n{\"page\":1,\"per_page\":6,\"total\":12,\"total_pages\":2,\"data\":[{\"id\":1,\"name\":\"cerulean\",\"year\":2000,\"color\":\"#98B2D1\",\"pantone_value\":\"15-4020\"},{\"id\":2,\"name\":\"fuchsia rose\",\"year\":2001,\"color\":\"#C74375\",\"pantone_value\":\"17-2031\"},{\"id\":3,\"name\":\"true red\",\"year\":2002,\"color\":\"#BF1932\",\"pantone_value\":\"19-1664\"},{\"id\":4,\"name\":\"aqua sky\",\"year\":2003,\"color\":\"#7BC4C4\",\"pantone_value\":\"14-4811\"},{\"id\":5,\"name\":\"tigerlily\",\"year\":2004,\"color\":\"#E2583E\",\"pantone_value\":\"17-1456\"},{\"id\":6,\"name\":\"blue turquoise\",\"year\":2005,\"color\":\"#53B0AE\",\"pantone_value\":\"15-5217\"}],\"support\":{\"url\":\"https:\/\/reqres.in\/#support-heading\",\"text\":\"To keep ReqRes free, contributions towards server costs are appreciated!\"}}\n\n"},{"result":{"nanos":13700,"startTime":1722510785468,"endTime":1722510785468,"millis":0.0137,"status":"passed"},"step":{"line":8,"prefix":"Then","index":3,"text":"status 200"}}],"line":4,"description":"","durationMillis":343.2788,"failed":false,"tags":["execute"],"executorName":"main","name":"Get list of users","startTime":1722510785122,"refId":"[1:4]","endTime":1722510785468,"exampleIndex":-1},{"sectionIndex":1,"stepResults":[{"result":{"nanos":123000,"startTime":1722510785477,"endTime":1722510785477,"millis":0.123,"status":"passed"},"step":{"line":13,"prefix":"Given","index":0,"text":"url baseURL"},"stepLog":"16:43:05.476 karate.env system property was: null \n"},{"result":{"nanos":571400,"startTime":1722510785477,"endTime":1722510785478,"millis":0.5714,"status":"passed"},"step":{"line":14,"prefix":"And","index":1,"text":"path '\/api\/users\/2'"}},{"result":{"nanos":67124900,"startTime":1722510785478,"endTime":1722510785545,"millis":67.1249,"status":"passed"},"step":{"line":15,"prefix":"When","index":2,"text":"method GET"},"stepLog":"16:43:05.479 request:\n1 > GET https:\/\/reqres.in\/api\/users\/2\n1 > Host: reqres.in\n1 > Connection: Keep-Alive\n1 > User-Agent: Apache-HttpClient\/4.5.14 (Java\/17.0.4.1)\n1 > Accept-Encoding: gzip,deflate\n\n\n16:43:05.543 response time in milliseconds: 61\n1 < 200\n1 < Date: Thu, 01 Aug 2024 11:13:05 GMT\n1 < Content-Type: application\/json; charset=utf-8\n1 < Transfer-Encoding: chunked\n1 < Connection: keep-alive\n1 < Report-To: {\"group\":\"heroku-nel\",\"max_age\":3600,\"endpoints\":[{\"url\":\"https:\/\/nel.heroku.com\/reports?ts=1722507849&sid=c4c9725f-1ab0-44d8-820f-430df2718e11&s=H5JygXxgJER5mYrV4oLo7YtMvlPOhz07%2BbGVO5bvJfI%3D\"}]}\n1 < Reporting-Endpoints: heroku-nel=https:\/\/nel.heroku.com\/reports?ts=1722507849&sid=c4c9725f-1ab0-44d8-820f-430df2718e11&s=H5JygXxgJER5mYrV4oLo7YtMvlPOhz07%2BbGVO5bvJfI%3D\n1 < Nel: {\"report_to\":\"heroku-nel\",\"max_age\":3600,\"success_fraction\":0.005,\"failure_fraction\":0.05,\"response_headers\":[\"Via\"]}\n1 < X-Powered-By: Express\n1 < Access-Control-Allow-Origin: *\n1 < Etag: W\/\"118-pbdwwFo9SKNhD3Lx5iHJyngpq00\"\n1 < Via: 1.1 vegur\n1 < Cache-Control: max-age=14400\n1 < CF-Cache-Status: HIT\n1 < Age: 2936\n1 < Vary: Accept-Encoding\n1 < Server: cloudflare\n1 < CF-RAY: 8ac56599686b4720-BOM\n{\"data\":{\"id\":2,\"email\":\"janet.weaver@reqres.in\",\"first_name\":\"Janet\",\"last_name\":\"Weaver\",\"avatar\":\"https:\/\/reqres.in\/img\/faces\/2-image.jpg\"},\"support\":{\"url\":\"https:\/\/reqres.in\/#support-heading\",\"text\":\"To keep ReqRes free, contributions towards server costs are appreciated!\"}}\n\n"},{"result":{"nanos":12200,"startTime":1722510785545,"endTime":1722510785545,"millis":0.0122,"status":"passed"},"step":{"line":16,"prefix":"Then","index":3,"text":"status 200"}}],"line":12,"description":"","durationMillis":67.8315,"failed":false,"tags":["execute"],"executorName":"main","name":"Get specific user details by id","startTime":1722510785475,"refId":"[2:12]","endTime":1722510785545,"exampleIndex":-1},{"sectionIndex":2,"stepResults":[{"result":{"nanos":221600,"startTime":1722510785555,"endTime":1722510785555,"millis":0.2216,"status":"passed"},"step":{"line":20,"prefix":"Given","index":0,"text":"url baseURL"},"stepLog":"16:43:05.554 karate.env system property was: null \n"},{"result":{"nanos":839200,"startTime":1722510785556,"endTime":1722510785557,"millis":0.8392,"status":"passed"},"step":{"line":21,"prefix":"And","index":1,"text":"path '\/api\/users\/23'"}},{"result":{"nanos":413914700,"startTime":1722510785557,"endTime":1722510785971,"millis":413.9147,"status":"passed"},"step":{"line":22,"prefix":"When","index":2,"text":"method GET"},"stepLog":"16:43:05.558 request:\n1 > GET https:\/\/reqres.in\/api\/users\/23\n1 > Host: reqres.in\n1 > Connection: Keep-Alive\n1 > User-Agent: Apache-HttpClient\/4.5.14 (Java\/17.0.4.1)\n1 > Accept-Encoding: gzip,deflate\n\n\n16:43:05.969 response time in milliseconds: 410\n1 < 404\n1 < Date: Thu, 01 Aug 2024 11:13:05 GMT\n1 < Content-Type: application\/json; charset=utf-8\n1 < Content-Length: 2\n1 < Connection: keep-alive\n1 < Report-To: {\"group\":\"heroku-nel\",\"max_age\":3600,\"endpoints\":[{\"url\":\"https:\/\/nel.heroku.com\/reports?ts=1722510785&sid=c4c9725f-1ab0-44d8-820f-430df2718e11&s=ba4AeUPJ8Z0YrR%2FMD%2BggWsBwloiCHHJ9dtVO4ZM0Ae4%3D\"}]}\n1 < Reporting-Endpoints: heroku-nel=https:\/\/nel.heroku.com\/reports?ts=1722510785&sid=c4c9725f-1ab0-44d8-820f-430df2718e11&s=ba4AeUPJ8Z0YrR%2FMD%2BggWsBwloiCHHJ9dtVO4ZM0Ae4%3D\n1 < Nel: {\"report_to\":\"heroku-nel\",\"max_age\":3600,\"success_fraction\":0.005,\"failure_fraction\":0.05,\"response_headers\":[\"Via\"]}\n1 < X-Powered-By: Express\n1 < Access-Control-Allow-Origin: *\n1 < Etag: W\/\"2-vyGp6PvFo4RvsFtPoIWeCReyIC8\"\n1 < Via: 1.1 vegur\n1 < Cache-Control: max-age=14400\n1 < CF-Cache-Status: EXPIRED\n1 < Vary: Accept-Encoding\n1 < Server: cloudflare\n1 < CF-RAY: 8ac56599ea253b6d-BOM\n{}\n\n"},{"result":{"nanos":9700,"startTime":1722510785970,"endTime":1722510785970,"millis":0.0097,"status":"passed"},"step":{"line":23,"prefix":"Then","index":3,"text":"status 404"}}],"line":19,"description":"","durationMillis":414.9852,"failed":false,"tags":["execute"],"executorName":"main","name":"Get specific user not founnd","startTime":1722510785552,"refId":"[3:19]","endTime":1722510785971,"exampleIndex":-1},{"sectionIndex":3,"stepResults":[{"result":{"nanos":178500,"startTime":1722510785983,"endTime":1722510785983,"millis":0.1785,"status":"passed"},"step":{"line":27,"prefix":"Given","index":0,"text":"url baseURL"},"stepLog":"16:43:05.982 karate.env system property was: null \n"},{"result":{"nanos":566000,"startTime":1722510785983,"endTime":1722510785984,"millis":0.566,"status":"passed"},"step":{"line":28,"prefix":"And","index":1,"text":"path '\/api\/unknown'"}},{"result":{"nanos":58710400,"startTime":1722510785984,"endTime":1722510786043,"millis":58.7104,"status":"passed"},"step":{"line":29,"prefix":"When","index":2,"text":"method GET"},"stepLog":"16:43:05.985 request:\n1 > GET https:\/\/reqres.in\/api\/unknown\n1 > Host: reqres.in\n1 > Connection: Keep-Alive\n1 > User-Agent: Apache-HttpClient\/4.5.14 (Java\/17.0.4.1)\n1 > Accept-Encoding: gzip,deflate\n\n\n16:43:06.041 response time in milliseconds: 55\n1 < 200\n1 < Date: Thu, 01 Aug 2024 11:13:06 GMT\n1 < Content-Type: application\/json; charset=utf-8\n1 < Transfer-Encoding: chunked\n1 < Connection: keep-alive\n1 < Report-To: {\"group\":\"heroku-nel\",\"max_age\":3600,\"endpoints\":[{\"url\":\"https:\/\/nel.heroku.com\/reports?ts=1722317500&sid=c4c9725f-1ab0-44d8-820f-430df2718e11&s=YyzvMkIi2zf1Rmc3%2FMKkWfGk0S155LAe%2Brz5nc8bk%2F8%3D\"}]}\n1 < Reporting-Endpoints: heroku-nel=https:\/\/nel.heroku.com\/reports?ts=1722317500&sid=c4c9725f-1ab0-44d8-820f-430df2718e11&s=YyzvMkIi2zf1Rmc3%2FMKkWfGk0S155LAe%2Brz5nc8bk%2F8%3D\n1 < Nel: {\"report_to\":\"heroku-nel\",\"max_age\":3600,\"success_fraction\":0.005,\"failure_fraction\":0.05,\"response_headers\":[\"Via\"]}\n1 < X-Powered-By: Express\n1 < Access-Control-Allow-Origin: *\n1 < Etag: W\/\"2c1-N6Rqerxquq2kgQhL51EiSg4x0R8\"\n1 < Via: 1.1 vegur\n1 < Cache-Control: max-age=14400\n1 < CF-Cache-Status: HIT\n1 < Age: 771\n1 < Vary: Accept-Encoding\n1 < Server: cloudflare\n1 < CF-RAY: 8ac5659c9cae4199-BOM\n{\"page\":1,\"per_page\":6,\"total\":12,\"total_pages\":2,\"data\":[{\"id\":1,\"name\":\"cerulean\",\"year\":2000,\"color\":\"#98B2D1\",\"pantone_value\":\"15-4020\"},{\"id\":2,\"name\":\"fuchsia rose\",\"year\":2001,\"color\":\"#C74375\",\"pantone_value\":\"17-2031\"},{\"id\":3,\"name\":\"true red\",\"year\":2002,\"color\":\"#BF1932\",\"pantone_value\":\"19-1664\"},{\"id\":4,\"name\":\"aqua sky\",\"year\":2003,\"color\":\"#7BC4C4\",\"pantone_value\":\"14-4811\"},{\"id\":5,\"name\":\"tigerlily\",\"year\":2004,\"color\":\"#E2583E\",\"pantone_value\":\"17-1456\"},{\"id\":6,\"name\":\"blue turquoise\",\"year\":2005,\"color\":\"#53B0AE\",\"pantone_value\":\"15-5217\"}],\"support\":{\"url\":\"https:\/\/reqres.in\/#support-heading\",\"text\":\"To keep ReqRes free, contributions towards server costs are appreciated!\"}}\n\n"},{"result":{"nanos":9700,"startTime":1722510786042,"endTime":1722510786042,"millis":0.0097,"status":"passed"},"step":{"line":30,"prefix":"Then","index":3,"text":"status 200"}}],"line":26,"description":"","durationMillis":59.4646,"failed":false,"tags":["execute"],"executorName":"main","name":"Get list resource unknown","startTime":1722510785981,"refId":"[4:26]","endTime":1722510786042,"exampleIndex":-1},{"sectionIndex":4,"stepResults":[{"result":{"nanos":146300,"startTime":1722510786055,"endTime":1722510786055,"millis":0.1463,"status":"passed"},"step":{"line":34,"prefix":"Given","index":0,"text":"url baseURL"},"stepLog":"16:43:06.054 karate.env system property was: null \n"},{"result":{"nanos":752300,"startTime":1722510786055,"endTime":1722510786056,"millis":0.7523,"status":"passed"},"step":{"line":35,"prefix":"And","index":1,"text":"path '\/api\/unknown\/2'"}},{"result":{"nanos":57989600,"startTime":1722510786056,"endTime":1722510786114,"millis":57.9896,"status":"passed"},"step":{"line":36,"prefix":"When","index":2,"text":"method GET"},"stepLog":"16:43:06.058 request:\n1 > GET https:\/\/reqres.in\/api\/unknown\/2\n1 > Host: reqres.in\n1 > Connection: Keep-Alive\n1 > User-Agent: Apache-HttpClient\/4.5.14 (Java\/17.0.4.1)\n1 > Accept-Encoding: gzip,deflate\n\n\n16:43:06.113 response time in milliseconds: 54\n1 < 200\n1 < Date: Thu, 01 Aug 2024 11:13:06 GMT\n1 < Content-Type: application\/json; charset=utf-8\n1 < Transfer-Encoding: chunked\n1 < Connection: keep-alive\n1 < Report-To: {\"group\":\"heroku-nel\",\"max_age\":3600,\"endpoints\":[{\"url\":\"https:\/\/nel.heroku.com\/reports?ts=1721665279&sid=c4c9725f-1ab0-44d8-820f-430df2718e11&s=kTgU53Oa9Cz5CTsJJL1yv9vC8h9vqr6mWigvcHuoHt4%3D\"}]}\n1 < Reporting-Endpoints: heroku-nel=https:\/\/nel.heroku.com\/reports?ts=1721665279&sid=c4c9725f-1ab0-44d8-820f-430df2718e11&s=kTgU53Oa9Cz5CTsJJL1yv9vC8h9vqr6mWigvcHuoHt4%3D\n1 < Nel: {\"report_to\":\"heroku-nel\",\"max_age\":3600,\"success_fraction\":0.005,\"failure_fraction\":0.05,\"response_headers\":[\"Via\"]}\n1 < X-Powered-By: Express\n1 < Access-Control-Allow-Origin: *\n1 < Etag: W\/\"e8-ov4wWh4\/OY1IMQMqWgskYtOFnVs\"\n1 < Via: 1.1 vegur\n1 < Cache-Control: max-age=14400\n1 < CF-Cache-Status: HIT\n1 < Age: 1061\n1 < Vary: Accept-Encoding\n1 < Server: cloudflare\n1 < CF-RAY: 8ac5659cfe7a40b1-BOM\n{\"data\":{\"id\":2,\"name\":\"fuchsia rose\",\"year\":2001,\"color\":\"#C74375\",\"pantone_value\":\"17-2031\"},\"support\":{\"url\":\"https:\/\/reqres.in\/#support-heading\",\"text\":\"To keep ReqRes free, contributions towards server costs are appreciated!\"}}\n\n"},{"result":{"nanos":11200,"startTime":1722510786115,"endTime":1722510786115,"millis":0.0112,"status":"passed"},"step":{"line":37,"prefix":"Then","index":3,"text":"status 200"}}],"line":33,"description":"","durationMillis":58.8994,"failed":false,"tags":["execute"],"executorName":"main","name":"Get single resource unknown","startTime":1722510786052,"refId":"[5:33]","endTime":1722510786115,"exampleIndex":-1},{"sectionIndex":5,"stepResults":[{"result":{"nanos":120800,"startTime":1722510786127,"endTime":1722510786127,"millis":0.1208,"status":"passed"},"step":{"line":41,"prefix":"Given","index":0,"text":"url baseURL"},"stepLog":"16:43:06.126 karate.env system property was: null \n"},{"result":{"nanos":1111500,"startTime":1722510786127,"endTime":1722510786128,"millis":1.1115,"status":"passed"},"step":{"line":42,"prefix":"And","index":1,"text":"path '\/api\/unknown\/23'"}},{"result":{"nanos":329207800,"startTime":1722510786128,"endTime":1722510786457,"millis":329.2078,"status":"passed"},"step":{"line":43,"prefix":"When","index":2,"text":"method GET"},"stepLog":"16:43:06.130 request:\n1 > GET https:\/\/reqres.in\/api\/unknown\/23\n1 > Host: reqres.in\n1 > Connection: Keep-Alive\n1 > User-Agent: Apache-HttpClient\/4.5.14 (Java\/17.0.4.1)\n1 > Accept-Encoding: gzip,deflate\n\n\n16:43:06.456 response time in milliseconds: 325\n1 < 404\n1 < Date: Thu, 01 Aug 2024 11:13:06 GMT\n1 < Content-Type: application\/json; charset=utf-8\n1 < Content-Length: 2\n1 < Connection: keep-alive\n1 < Report-To: {\"group\":\"heroku-nel\",\"max_age\":3600,\"endpoints\":[{\"url\":\"https:\/\/nel.heroku.com\/reports?ts=1722510786&sid=c4c9725f-1ab0-44d8-820f-430df2718e11&s=Xa8i%2BNHK2s29Hne7PbDLQyIOLuco7sVIiScmMCMUyuE%3D\"}]}\n1 < Reporting-Endpoints: heroku-nel=https:\/\/nel.heroku.com\/reports?ts=1722510786&sid=c4c9725f-1ab0-44d8-820f-430df2718e11&s=Xa8i%2BNHK2s29Hne7PbDLQyIOLuco7sVIiScmMCMUyuE%3D\n1 < Nel: {\"report_to\":\"heroku-nel\",\"max_age\":3600,\"success_fraction\":0.005,\"failure_fraction\":0.05,\"response_headers\":[\"Via\"]}\n1 < X-Powered-By: Express\n1 < Access-Control-Allow-Origin: *\n1 < Etag: W\/\"2-vyGp6PvFo4RvsFtPoIWeCReyIC8\"\n1 < Via: 1.1 vegur\n1 < Cache-Control: max-age=14400\n1 < CF-Cache-Status: EXPIRED\n1 < Vary: Accept-Encoding\n1 < Server: cloudflare\n1 < CF-RAY: 8ac5659d6ea340ed-BOM\n{}\n\n"},{"result":{"nanos":13200,"startTime":1722510786457,"endTime":1722510786457,"millis":0.0132,"status":"passed"},"step":{"line":44,"prefix":"Then","index":3,"text":"status 404"}}],"line":40,"description":"","durationMillis":330.4533,"failed":false,"tags":["execute"],"executorName":"main","name":"Get single resource not found","startTime":1722510786125,"refId":"[6:40]","endTime":1722510786457,"exampleIndex":-1},{"sectionIndex":6,"stepResults":[{"result":{"nanos":91800,"startTime":1722510786465,"endTime":1722510786465,"millis":0.0918,"status":"passed"},"step":{"line":48,"prefix":"Given","index":0,"text":"url baseURL"},"stepLog":"16:43:06.464 karate.env system property was: null \n"},{"result":{"nanos":534000,"startTime":1722510786465,"endTime":1722510786466,"millis":0.534,"status":"passed"},"step":{"line":49,"prefix":"And","index":1,"text":"path '\/api\/users?delay=3'"}},{"result":{"nanos":420802100,"startTime":1722510786466,"endTime":1722510786887,"millis":420.8021,"status":"passed"},"step":{"line":50,"prefix":"When","index":2,"text":"method GET"},"stepLog":"16:43:06.467 request:\n1 > GET https:\/\/reqres.in\/api\/users%3Fdelay=3\n1 > Host: reqres.in\n1 > Connection: Keep-Alive\n1 > User-Agent: Apache-HttpClient\/4.5.14 (Java\/17.0.4.1)\n1 > Accept-Encoding: gzip,deflate\n\n\n16:43:06.885 response time in milliseconds: 416\n1 < 200\n1 < Date: Thu, 01 Aug 2024 11:13:06 GMT\n1 < Content-Type: application\/json; charset=utf-8\n1 < Transfer-Encoding: chunked\n1 < Connection: keep-alive\n1 < Report-To: {\"group\":\"heroku-nel\",\"max_age\":3600,\"endpoints\":[{\"url\":\"https:\/\/nel.heroku.com\/reports?ts=1722510786&sid=c4c9725f-1ab0-44d8-820f-430df2718e11&s=Xa8i%2BNHK2s29Hne7PbDLQyIOLuco7sVIiScmMCMUyuE%3D\"}]}\n1 < Reporting-Endpoints: heroku-nel=https:\/\/nel.heroku.com\/reports?ts=1722510786&sid=c4c9725f-1ab0-44d8-820f-430df2718e11&s=Xa8i%2BNHK2s29Hne7PbDLQyIOLuco7sVIiScmMCMUyuE%3D\n1 < Nel: {\"report_to\":\"heroku-nel\",\"max_age\":3600,\"success_fraction\":0.005,\"failure_fraction\":0.05,\"response_headers\":[\"Via\"]}\n1 < X-Powered-By: Express\n1 < Access-Control-Allow-Origin: *\n1 < Etag: W\/\"2c1-N6Rqerxquq2kgQhL51EiSg4x0R8\"\n1 < Via: 1.1 vegur\n1 < Cache-Control: max-age=14400\n1 < CF-Cache-Status: MISS\n1 < Vary: Accept-Encoding\n1 < Server: cloudflare\n1 < CF-RAY: 8ac5659fbe2147ca-BOM\n{\"page\":1,\"per_page\":6,\"total\":12,\"total_pages\":2,\"data\":[{\"id\":1,\"name\":\"cerulean\",\"year\":2000,\"color\":\"#98B2D1\",\"pantone_value\":\"15-4020\"},{\"id\":2,\"name\":\"fuchsia rose\",\"year\":2001,\"color\":\"#C74375\",\"pantone_value\":\"17-2031\"},{\"id\":3,\"name\":\"true red\",\"year\":2002,\"color\":\"#BF1932\",\"pantone_value\":\"19-1664\"},{\"id\":4,\"name\":\"aqua sky\",\"year\":2003,\"color\":\"#7BC4C4\",\"pantone_value\":\"14-4811\"},{\"id\":5,\"name\":\"tigerlily\",\"year\":2004,\"color\":\"#E2583E\",\"pantone_value\":\"17-1456\"},{\"id\":6,\"name\":\"blue turquoise\",\"year\":2005,\"color\":\"#53B0AE\",\"pantone_value\":\"15-5217\"}],\"support\":{\"url\":\"https:\/\/reqres.in\/#support-heading\",\"text\":\"To keep ReqRes free, contributions towards server costs are appreciated!\"}}\n\n"},{"result":{"nanos":12600,"startTime":1722510786887,"endTime":1722510786887,"millis":0.0126,"status":"passed"},"step":{"line":51,"prefix":"Then","index":3,"text":"status 200"}}],"line":47,"description":"","durationMillis":421.4405,"failed":false,"tags":["execute"],"executorName":"main","name":"Get delayed response user","startTime":1722510786463,"refId":"[7:47]","endTime":1722510786887,"exampleIndex":-1}],"callDepth":0,"name":"Get users from ReqRes","description":"","resultDate":"2024-08-01 04:43:06 PM","durationMillis":1696.3533,"passedCount":7}